[gd_scene load_steps=4 format=2]

[ext_resource path="res://World/Tree.png" type="Texture" id=1]
[ext_resource path="res://Shadows/LargeShadow.png" type="Texture" id=2]

[sub_resource type="CapsuleShape2D" id=1]
radius = 7.12152
height = 9.07056

[node name="Tree" type="StaticBody2D"]

[node name="Sprite" type="Sprite" parent="."]
position = Vector2( 0, -16 )
texture = ExtResource( 1 )

[node name="SpriteShadow" type="Sprite" parent="."]
texture = ExtResource( 2 )

[node name="CollisionShape2D" type="CollisionShape2D" parent="."]
rotation = 1.5708
shape = SubResource( 1 )
